{
	"Identification":{
		"FirstName": "Pedro",
		"LastName": "Dela Cruz",
		"DOB": "06/15/2003",
		"Gender": "M",
		"Title": "Supervisor"
	},
	"Address": [
		{
			"Type": "House",
			"Number": "310112",
			"Street": "St. Peter",
			"Unit": "1A",
			"City": "Tanza",
			"Province": "Cavite",
			"ZipCode": "4108"
		}
	],
	"Communication":[
		{
			"Type": "Email",
			"Value": "example@yahoo.com",
			"Preferred": "False"		
		},
		{
			"Type": "Phone",
			"Value": "+639493150793",
			"Preferred": "True"				
		}
	]
}